proj/regex_copro/regex_copro.sim/sim_1/synth/func/xsim/simulate.log
Vivado Simulator 2019.2
Time resolution is 1 ps
Starting test for accepting
writing code from 00000000
  5,  0,  1,  3
  1, 21,  3,  0
  2, 88,  1, 16
  1, 11,  3,  7
  3, 10,  2, 88
  1, 14,  3, 21
  3, 10,  2, 82
  3, 10,  2, 75
  2, 82,  1, 19
  2, 75,  3,  7
  5,  0,  3,  7
  2, 88,  1, 26
  6,  0,  3, 25
  2, 83,  1, 29
  2, 84,  3, 25
  0,  0,  3, 25
writing string from 00000010
 83, 70, 65, 77
 86, 68, 69, 65
 89, 69, 75, 76
 82, 82, 82, 68
 65, 69, 77, 82
 83, 76, 76, 76
 80, 89, 89, 76
 75, 82, 68, 78
 89, 68, 76, 76
 83, 87, 69, 75
 86, 82, 80, 80
 67, 69, 86, 81
 80, 65, 75, 80
 78, 87, 69, 86
 83, 80, 80, 78
 76, 71, 75, 69
 72, 71, 86, 73
 73, 71, 83, 70
 71, 75, 89, 75
 81, 65, 75, 69
 86, 69, 83, 65
 75, 78, 86, 68
 87, 67, 67, 77
 70, 75, 83, 86
 77, 65, 68, 75
 81, 89, 82, 82
 84, 81, 73, 71
 80, 73, 75, 67
 76, 86, 75, 71
 68, 76, 68, 83
 75, 73, 75, 65
 76, 78, 89, 65
 71, 69, 86, 84
 70, 71, 69, 86
 83, 89, 82, 86
 75, 84, 86, 82
 65, 86, 72, 81
 75, 76, 70, 65
 72, 82, 76, 69
 89, 81, 75, 83
 78, 86, 78, 69
 89, 72, 73, 76
 68, 84, 76, 73
 68, 86, 82, 75
 76, 72, 81, 73
 76, 68, 75, 69
 70, 68, 75, 86
 86, 76, 65, 75
 72, 65, 83, 69
 81, 82, 77, 82
 73, 77, 72, 71
 89, 75, 86, 78
 81, 89, 76, 73
 75, 75, 76, 76
 71, 72, 71, 72
 80, 71, 68, 80
 84, 76, 73, 68
 71, 84, 75, 86
 86, 71, 75, 83
 68, 68, 89, 76
 75, 82, 70, 83
 68, 84, 89, 73
 75, 87, 71, 76
 76, 80, 84, 70
  0,  0,  0,  0
wrote string and code
verify phase
  1,  3
  5,  0
  3,  0
  1, 21
  1, 16
  2, 88
  3,  7
  1, 11
  2, 88
  3, 10
  3, 21
  1, 14
  2, 82
  3, 10
  2, 75
  3, 10
  1, 19
  2, 82
  3,  7
  2, 75
  3,  7
  5,  0
  1, 26
  2, 88
  3, 25
  6,  0
  1, 29
  2, 83
  3, 25
  2, 84
  3, 25
code : OK
 65, 77
 83, 70
 69, 65
 86, 68
 75, 76
 89, 69
 82, 68
 82, 82
 77, 82
 65, 69
 76, 76
 83, 76
 89, 76
 80, 89
 68, 78
 75, 82
 76, 76
 89, 68
 69, 75
 83, 87
 80, 80
 86, 82
 86, 81
 67, 69
 75, 80
 80, 65
 69, 86
 78, 87
 80, 78
 83, 80
 75, 69
 76, 71
 86, 73
 72, 71
 83, 70
 73, 71
 89, 75
 71, 75
 75, 69
 81, 65
 83, 65
 86, 69
 86, 68
 75, 78
 67, 77
 87, 67
 83, 86
 70, 75
 68, 75
 77, 65
 82, 82
 81, 89
 73, 71
 84, 81
 75, 67
 80, 73
 75, 71
 76, 86
 68, 83
 68, 76
 75, 65
 75, 73
 89, 65
 76, 78
 86, 84
 71, 69
 69, 86
 70, 71
 82, 86
 83, 89
 86, 82
 75, 84
 72, 81
 65, 86
 70, 65
 75, 76
 76, 69
 72, 82
 75, 83
 89, 81
 78, 69
 78, 86
 73, 76
 89, 72
 76, 73
 68, 84
 82, 75
 68, 86
 81, 73
 76, 72
 75, 69
 76, 68
 75, 86
 70, 68
 65, 75
 86, 76
 83, 69
 72, 65
 77, 82
 81, 82
 72, 71
 73, 77
 86, 78
 89, 75
 76, 73
 81, 89
 76, 76
 75, 75
 71, 72
 71, 72
 68, 80
 80, 71
 73, 68
 84, 76
 75, 86
 71, 84
 75, 83
 86, 71
 89, 76
 68, 68
 70, 83
 75, 82
 89, 73
 68, 84
 71, 76
 75, 87
 84, 70
 76, 80
  0,  0
string : OK
cc taken:        118
BB utilization 	 0.000000	 0.000000	 0.000000	 0.000000	 0.000000	 0.000000	 0.000000	 0.000000	 0.000000	 0.000000	 0.000000	 0.000000	 0.000000	 0.000000	 0.000000	 0.000000
string accepted
$finish called at time : 6565 ns
